{
  "DA Warner": {
    "2009": 124.43,
    "2010": 150,
    "2011": 118.25,
    "2012": 166.23,
    "2013": 126.93,
    "2014": 142.7,
    "2015": 158.31,
    "2016": 151.97,
    "2017": 143.08
  },
  "S Dhawan": {
    "2008": 115.65,
    "2009": 90.91,
    "2010": 113.69,
    "2011": 129.87,
    "2012": 129.91,
    "2013": 123.41,
    "2014": 119.3,
    "2015": 124.3,
    "2016": 117.61,
    "2017": 128.07
  },
  "MC Henriques": {
    "2009": 97.44,
    "2010": 275,
    "2013": 134.15,
    "2014": 69.23,
    "2015": 137.32,
    "2016": 116.67,
    "2017": 137.13
  },
  "Yuvraj Singh": {
    "2008": 163.39,
    "2009": 116.04,
    "2010": 129.5,
    "2011": 131.92,
    "2013": 125.93,
    "2014": 137.73,
    "2015": 119.23,
    "2016": 132.58,
    "2017": 144
  },
  "DJ Hooda": {
    "2015": 160.64,
    "2016": 122.03,
    "2017": 152.94
  },
  "BCJ Cutting": {
    "2014": 160,
    "2016": 196.97,
    "2017": 204
  },
  "CH Gayle": {
    "2009": 125.17,
    "2010": 160.44,
    "2011": 184.24,
    "2012": 162.89,
    "2013": 158.94,
    "2014": 107.1,
    "2015": 148.79,
    "2016": 152.35,
    "2017": 124.22
  },
  "Mandeep Singh": {
    "2010": 40,
    "2011": 117.5,
    "2012": 127.06,
    "2013": 117.12,
    "2014": 100,
    "2015": 158.59,
    "2017": 106.82
  },
  "TM Head": {
    "2016": 142.11,
    "2017": 141.12
  },
  "KM Jadhav": {
    "2010": 138.18,
    "2011": 81.82,
    "2013": 124.59,
    "2014": 152.04,
    "2015": 135.97,
    "2016": 140,
    "2017": 146.7
  },
  "SR Watson": {
    "2008": 154.25,
    "2010": 165.18,
    "2011": 131.47,
    "2012": 152.69,
    "2013": 144.03,
    "2014": 124.87,
    "2015": 135.55,
    "2016": 134.59,
    "2017": 92.21
  },
  "Sachin Baby": {
    "2013": 50,
    "2016": 156.58,
    "2017": 107.14
  },
  "STR Binny": {
    "2010": 200,
    "2011": 123.33,
    "2012": 136.36,
    "2013": 147.98,
    "2014": 102.5,
    "2015": 115.63,
    "2016": 165.79,
    "2017": 104
  },
  "S Aravind": {
    "2011": 162.5,
    "2012": 200,
    "2015": null,
    "2017": 82.05
  },
  "YS Chahal": {
    "2014": 100,
    "2015": null,
    "2017": 52
  },
  "TS Mills": {
    "2017": 80
  },
  "A Choudhary": {
    "2017": 131.58
  },
  "PA Patel": {
    "2008": 102.72,
    "2009": 113.6,
    "2010": 92.31,
    "2011": 111.6,
    "2012": 119.02,
    "2013": 115.75,
    "2014": 111.41,
    "2015": 138.37,
    "2016": 118,
    "2017": 134.81
  },
  "JC Buttler": {
    "2016": 140.11,
    "2017": 153.37
  },
  "RG Sharma": {
    "2008": 150.19,
    "2009": 116.03,
    "2010": 135.12,
    "2011": 125.68,
    "2012": 127.35,
    "2013": 132.19,
    "2014": 129.57,
    "2015": 145.18,
    "2016": 133.97,
    "2017": 122.43
  },
  "N Rana": {
    "2016": 142.47,
    "2017": 127.1
  },
  "AT Rayudu": {
    "2010": 146.5,
    "2011": 113.18,
    "2012": 132.67,
    "2013": 116.23,
    "2014": 126.67,
    "2015": 147.12,
    "2016": 121.01,
    "2017": 118.18
  },
  "KH Pandya": {
    "2016": 192.68,
    "2017": 136.52
  },
  "KA Pollard": {
    "2010": 188.28,
    "2011": 111.45,
    "2012": 140.13,
    "2013": 151.62,
    "2014": 135.82,
    "2015": 164.96,
    "2016": 144.44,
    "2017": 142.09
  },
  "HH Pandya": {
    "2015": 189.83,
    "2016": 69.84,
    "2017": 158.23
  },
  "TG Southee": {
    "2014": 133.33,
    "2015": 162.5,
    "2016": 176.47,
    "2017": 350
  },
  "AM Rahane": {
    "2008": 25,
    "2009": 120,
    "2011": 123.71,
    "2012": 129.33,
    "2013": 106.78,
    "2014": 116.9,
    "2015": 131.39,
    "2016": 127.32,
    "2017": 118.63
  },
  "MA Agarwal": {
    "2011": 121.55,
    "2012": 144.23,
    "2013": 109.84,
    "2014": 127.78,
    "2015": 121.71,
    "2016": 112.5,
    "2017": 100
  },
  "SPD Smith": {
    "2012": 138.7,
    "2013": 121.37,
    "2014": 136.94,
    "2015": 136.07,
    "2016": 155.17,
    "2017": 122.28
  },
  "BA Stokes": {
    "2017": 143.64
  },
  "MS Dhoni": {
    "2008": 133.98,
    "2009": 127.69,
    "2010": 137.32,
    "2011": 160.66,
    "2012": 130.29,
    "2013": 165.23,
    "2014": 150.81,
    "2015": 122.37,
    "2016": 135.89,
    "2017": 116.47
  },
  "JJ Roy": {
    "2017": 151.28
  },
  "BB McCullum": {
    "2008": 208.89,
    "2009": 121.7,
    "2010": 105.56,
    "2011": 131.73,
    "2012": 102.48,
    "2013": 100,
    "2014": 121.99,
    "2015": 158.55,
    "2016": 135.63,
    "2017": 146.12
  },
  "SK Raina": {
    "2008": 143.69,
    "2009": 142.3,
    "2010": 145.45,
    "2011": 136.02,
    "2012": 136.53,
    "2013": 150.96,
    "2014": 146.91,
    "2015": 123.84,
    "2016": 128.3,
    "2017": 145.87
  },
  "AJ Finch": {
    "2010": 105,
    "2011": 102.17,
    "2012": 110,
    "2013": 136.12,
    "2014": 118.85,
    "2015": 71.88,
    "2016": 132.77,
    "2017": 165.75
  },
  "KD Karthik": {
    "2008": 136.79,
    "2009": 133.33,
    "2010": 118.3,
    "2011": 128.77,
    "2012": 112.8,
    "2013": 125,
    "2014": 126.46,
    "2015": 121.55,
    "2016": 126.42,
    "2017": 140.47
  },
  "G Gambhir": {
    "2008": 141.64,
    "2009": 104,
    "2010": 128.24,
    "2011": 120.77,
    "2012": 143.9,
    "2013": 119.06,
    "2014": 115.92,
    "2015": 117.63,
    "2016": 121.9,
    "2017": 128.35
  },
  "CA Lynn": {
    "2012": 75,
    "2014": 120.83,
    "2016": 119.05,
    "2017": 184.38
  },
  "MK Tiwary": {
    "2008": 123.81,
    "2009": 75,
    "2010": 128.8,
    "2011": 111.84,
    "2012": 106.12,
    "2013": 105.04,
    "2014": 129.91,
    "2015": 103.64,
    "2017": 138.46
  },
  "DT Christian": {
    "2011": 121.79,
    "2012": 123.93,
    "2013": 42.86,
    "2017": 164.58
  },
  "HM Amla": {
    "2016": 133.05,
    "2017": 146.85
  },
  "M Vohra": {
    "2013": 138.79,
    "2014": 140.26,
    "2015": 102.5,
    "2016": 123.85,
    "2017": 144.94
  },
  "WP Saha": {
    "2008": 134.75,
    "2009": 180,
    "2010": 128.85,
    "2011": 109.68,
    "2012": 46.15,
    "2013": 127.27,
    "2014": 145.97,
    "2015": 127.04,
    "2016": 127.96,
    "2017": 126.49
  },
  "AR Patel": {
    "2014": 105.08,
    "2015": 119.08,
    "2016": 146.05,
    "2017": 140.99
  },
  "GJ Maxwell": {
    "2012": 60,
    "2013": 138.46,
    "2014": 190.34,
    "2015": 130.36,
    "2016": 145.53,
    "2017": 175.14
  },
  "DA Miller": {
    "2012": 132.43,
    "2013": 165.87,
    "2014": 149.66,
    "2015": 134.21,
    "2016": 124.81,
    "2017": 107.79
  },
  "Vishnu Vinod": {
    "2017": 76
  },
  "Iqbal Abdulla": {
    "2008": 100,
    "2010": null,
    "2011": 136.36,
    "2012": 100,
    "2013": 61.54,
    "2015": 125,
    "2016": 148,
    "2017": 83.33
  },
  "P Negi": {
    "2012": 128.57,
    "2015": 163.38,
    "2016": 98.28,
    "2017": 130.91
  },
  "AP Tare": {
    "2010": 142.86,
    "2013": 148.19,
    "2014": 131.25,
    "2015": 87.5,
    "2016": 57.14,
    "2017": 81.82
  },
  "SW Billings": {
    "2016": 141.94,
    "2017": 135.29
  },
  "KK Nair": {
    "2013": 81.82,
    "2014": 142.86,
    "2015": 125.69,
    "2016": 121.43,
    "2017": 124.89
  },
  "SV Samson": {
    "2013": 116.38,
    "2014": 124.63,
    "2015": 126.71,
    "2016": 113.23,
    "2017": 141.91
  },
  "RR Pant": {
    "2016": 131.13,
    "2017": 167.12
  },
  "CH Morris": {
    "2013": 93.33,
    "2015": 172.73,
    "2016": 180.56,
    "2017": 165.59
  },
  "CR Brathwaite": {
    "2016": 218.42,
    "2017": 85.71
  },
  "PJ Cummins": {
    "2015": 0,
    "2017": 148.08
  },
  "A Mishra": {
    "2008": 90.24,
    "2009": 136.84,
    "2010": 79.59,
    "2011": 141.67,
    "2012": 84.21,
    "2013": 94.68,
    "2014": 66.67,
    "2015": 72.73,
    "2016": 30.77,
    "2017": 96.08
  },
  "S Nadeem": {
    "2011": null,
    "2012": 0,
    "2013": 53.85,
    "2014": 38.89,
    "2015": 33.33,
    "2016": 25,
    "2017": 25
  },
  "Z Khan": {
    "2008": 82.93,
    "2009": 80,
    "2010": 200,
    "2011": 91.3,
    "2012": 75,
    "2014": 133.33,
    "2016": 50,
    "2017": 33.33
  },
  "DR Smith": {
    "2008": 115.38,
    "2009": 165.38,
    "2010": 91.67,
    "2012": 163.54,
    "2013": 123.3,
    "2014": 136.71,
    "2015": 120.91,
    "2016": 147.27,
    "2017": 154.19
  },
  "DS Kulkarni": {
    "2008": 13.33,
    "2009": 56.25,
    "2011": 66.67,
    "2012": 250,
    "2014": 145.83,
    "2015": 40,
    "2016": 180,
    "2017": 100
  },
  "P Kumar": {
    "2008": 115.46,
    "2009": 144.44,
    "2010": 57.14,
    "2011": 87.1,
    "2012": 125,
    "2013": 127.03,
    "2014": 100,
    "2015": 70.83,
    "2016": 96,
    "2017": 100
  },
  "Basil Thampi": {
    "2017": 103.7
  },
  "RV Uthappa": {
    "2008": 117.22,
    "2009": 103.55,
    "2010": 172.35,
    "2011": 129.41,
    "2012": 118.77,
    "2013": 118.26,
    "2014": 138.36,
    "2015": 131.88,
    "2016": 137.28,
    "2017": 165.81
  },
  "MK Pandey": {
    "2008": 37.5,
    "2009": 144.83,
    "2010": 111.16,
    "2011": 108.85,
    "2012": 131.19,
    "2013": 100,
    "2014": 119.59,
    "2015": 122.95,
    "2016": 136.26,
    "2017": 129.84
  },
  "YK Pathan": {
    "2008": 182.77,
    "2009": 139.57,
    "2010": 167.34,
    "2011": 142.21,
    "2012": 117.58,
    "2013": 139.5,
    "2014": 163.41,
    "2015": 136.84,
    "2016": 146.15,
    "2017": 125.44
  },
  "SA Yadav": {
    "2012": 0,
    "2014": 143.86,
    "2015": 140.18,
    "2016": 130,
    "2017": 120.69
  },
  "CR Woakes": {
    "2017": 100
  },
  "SP Narine": {
    "2012": 150,
    "2013": 116.67,
    "2014": 76.92,
    "2015": null,
    "2016": 58.33,
    "2017": 173.64
  },
  "Harbhajan Singh": {
    "2008": 187.5,
    "2009": 161.54,
    "2010": 177.97,
    "2011": 147.14,
    "2012": 136.71,
    "2013": 148.72,
    "2014": 116.67,
    "2015": 164.79,
    "2016": 110.84,
    "2017": 106.67
  },
  "AB de Villiers": {
    "2008": 97.94,
    "2009": 131.73,
    "2010": 94.07,
    "2011": 129.46,
    "2012": 162.76,
    "2013": 168.02,
    "2014": 159.92,
    "2015": 176.9,
    "2016": 170.05,
    "2017": 133.33
  },
  "CJ Anderson": {
    "2014": 147.22,
    "2015": 120,
    "2017": 117.36
  },
  "F du Plessis": {
    "2012": 131.35,
    "2014": 129.49,
    "2015": 125.41,
    "2016": 127.95,
    "2017": 133.33
  },
  "RA Tripathi": {
    "2017": 146.99
  },
  "R Bhatia": {
    "2008": 125.93,
    "2009": 47.06,
    "2010": 150,
    "2011": 119.05,
    "2012": 129.63,
    "2013": 125.32,
    "2014": 128.85,
    "2015": null,
    "2016": 178.95,
    "2017": 100
  },
  "DL Chahar": {
    "2017": 280
  },
  "A Zampa": {
    "2016": null,
    "2017": 83.33
  },
  "AB Dinda": {
    "2008": 66.67,
    "2009": 100,
    "2010": null,
    "2011": 0,
    "2012": 50,
    "2013": 90,
    "2014": 36.36,
    "2017": 116.67
  },
  "Imran Tahir": {
    "2014": 88.89,
    "2015": 100,
    "2016": 83.33,
    "2017": 0
  },
  "NV Ojha": {
    "2009": 117.48,
    "2010": 133.69,
    "2011": 100,
    "2012": 114.86,
    "2013": 100,
    "2014": 145.91,
    "2015": 115.13,
    "2016": 99.27,
    "2017": 121.54
  },
  "V Shankar": {
    "2017": 136.49
  },
  "Rashid Khan": {
    "2017": 137.5
  },
  "B Kumar": {
    "2011": null,
    "2012": 102.56,
    "2013": 74.29,
    "2014": 33.33,
    "2015": 188.89,
    "2016": 165.38,
    "2017": 133.33
  },
  "MP Stoinis": {
    "2016": 136.45,
    "2017": 73.91
  },
  "MM Sharma": {
    "2013": 0,
    "2014": 50,
    "2015": 164.71,
    "2016": 128,
    "2017": 104.08
  },
  "VR Aaron": {
    "2011": 0,
    "2012": 50,
    "2014": 109.38,
    "2015": 300,
    "2017": 44.44
  },
  "V Kohli": {
    "2008": 105.77,
    "2009": 112.84,
    "2010": 146.19,
    "2011": 121.62,
    "2012": 112.35,
    "2013": 141.06,
    "2014": 122.53,
    "2015": 131.17,
    "2016": 152.99,
    "2017": 122.22
  },
  "MJ McClenaghan": {
    "2015": 260,
    "2016": 154.55,
    "2017": 114.29
  },
  "Ankit Sharma": {
    "2012": 150,
    "2014": 117.24,
    "2015": 140,
    "2016": 150,
    "2017": 178.57
  },
  "SN Thakur": {
    "2015": 140,
    "2017": 0
  },
  "RD Chahar": {
    "2017": 300
  },
  "LH Ferguson": {
    "2017": null
  },
  "C de Grandhomme": {
    "2017": 138.46
  },
  "Bipul Sharma": {
    "2010": 150,
    "2011": 135.29,
    "2012": 156.52,
    "2015": 100,
    "2016": 212.5,
    "2017": 134.78
  },
  "SS Iyer": {
    "2015": 128.74,
    "2016": 71.43,
    "2017": 139.67
  },
  "EJG Morgan": {
    "2010": 120.69,
    "2011": 118.1,
    "2013": 128.45,
    "2015": 124.67,
    "2016": 118.27,
    "2017": 106.56
  },
  "KC Cariappa": {
    "2016": 130,
    "2017": 33.33
  },
  "Sandeep Sharma": {
    "2013": null,
    "2014": 50,
    "2015": 69.23,
    "2016": 100,
    "2017": 175
  },
  "Ishan Kishan": {
    "2016": 105,
    "2017": 135.78
  },
  "JD Unadkat": {
    "2013": 200,
    "2014": 20,
    "2017": 50
  },
  "AF Milne": {
    "2017": 63.64
  },
  "S Badree": {
    "2017": 59.09
  },
  "AD Mathews": {
    "2009": 123.08,
    "2010": 128.02,
    "2012": 118.69,
    "2013": 124.64,
    "2015": 141.18,
    "2017": 123.08
  },
  "Mohammed Shami": {
    "2013": 55.56,
    "2014": 50,
    "2016": 66.67,
    "2017": 156.52
  },
  "Mohammad Nabi": {
    "2017": 100
  },
  "I Sharma": {
    "2008": 110,
    "2009": 133.33,
    "2010": 37.5,
    "2011": 100,
    "2017": 72.73
  },
  "RA Jadeja": {
    "2008": 136.36,
    "2009": 111.74,
    "2011": 125.22,
    "2012": 127.33,
    "2013": 151.13,
    "2014": 135.19,
    "2015": 105.6,
    "2016": 109.77,
    "2017": 141.07
  },
  "AJ Tye": {
    "2017": 189.29
  },
  "KS Williamson": {
    "2015": 119.23,
    "2016": 102.48,
    "2017": 153.29
  },
  "SE Marsh": {
    "2008": 140.32,
    "2010": 130.09,
    "2011": 147.37,
    "2012": 120.43,
    "2013": 120.97,
    "2014": 137.25,
    "2015": 152.46,
    "2016": 119.55,
    "2017": 138.22
  },
  "Shakib Al Hasan": {
    "2011": 138.1,
    "2012": 126.39,
    "2014": 149.67,
    "2015": 138.46,
    "2016": 108.57,
    "2017": null
  },
  "JP Faulkner": {
    "2012": 116.67,
    "2013": 101.79,
    "2014": 196.74,
    "2015": 134.58,
    "2016": 135.09,
    "2017": 98.18
  },
  "MG Johnson": {
    "2013": 111.43,
    "2014": 114.29,
    "2015": 88.57,
    "2016": 38.46,
    "2017": 125
  },
  "K Rabada": {
    "2017": 85.94
  },
  "AD Nath": {
    "2016": 76.92,
    "2017": null
  },
  "NM Coulter-Nile": {
    "2013": 180,
    "2015": 117.65,
    "2016": 69.23,
    "2017": 127.27
  },
  "Kuldeep Yadav": {
    "2017": 95.24
  },
  "UT Yadav": {
    "2010": 100,
    "2011": 25,
    "2012": 33.33,
    "2013": 102.7,
    "2014": 66.67,
    "2015": 223.08,
    "2016": 180,
    "2017": 83.33
  },
  "Washington Sundar": {
    "2017": 81.82
  },
  "KV Sharma": {
    "2009": 50,
    "2013": 100,
    "2014": 150,
    "2015": 123.81,
    "2016": 124.14,
    "2017": 122.5
  },
  "DM Bravo": {
    "2017": 150
  },
  "AR Bawne": {
    "2017": 109.09
  },
  "SP Jackson": {
    "2017": 126.67
  },
  "MJ Guptill": {
    "2016": 105.56,
    "2017": 153.49
  },
  "Anureet Singh": {
    "2015": 60,
    "2017": 136.36
  },
  "IK Pathan": {
    "2008": 114.91,
    "2009": 124.84,
    "2010": 149.19,
    "2011": 110.29,
    "2012": 140.8,
    "2013": 99.35,
    "2014": 103.77,
    "2016": 91.67,
    "2017": 100
  },
  "Ankit Soni": {
    "2017": 87.5
  },
  "JJ Bumrah": {
    "2014": 50,
    "2016": 80,
    "2017": 145.45
  },
  "SL Malinga": {
    "2009": null,
    "2010": null,
    "2011": 100,
    "2012": 105.77,
    "2013": 52.94,
    "2014": 66.67,
    "2015": 66.67,
    "2017": 350
  },
  "PJ Sangwan": {
    "2008": 50,
    "2009": 66.67,
    "2010": 76.92,
    "2013": 400,
    "2017": 66.67
  },
  "S Kaul": {
    "2013": 87.5,
    "2014": 200,
    "2017": 0
  },
  "LMP Simmons": {
    "2014": 135.86,
    "2015": 123.57,
    "2016": 114.29,
    "2017": 123.42
  },
  "MN Samuels": {
    "2012": 101.64,
    "2013": 47.06,
    "2017": 96.67
  },
  "Swapnil Singh": {
    "2016": null,
    "2017": 66.67
  },
  "R Tewatia": {
    "2014": 133.33,
    "2017": 190
  },
  "MM Patel": {
    "2008": null,
    "2009": 132,
    "2010": 100,
    "2011": null,
    "2012": 33.33,
    "2017": null
  },
  "SS Tiwary": {
    "2008": 136.84,
    "2009": 118.18,
    "2010": 136.93,
    "2011": 101.08,
    "2012": 115.06,
    "2013": 103.81,
    "2015": 141.56,
    "2016": 123.19,
    "2017": 120.93
  },
  "TA Boult": {
    "2017": 71.43
  },
  "CJ Jordan": {
    "2016": 100,
    "2017": null
  },
  "IR Jaggi": {
    "2011": 77.78,
    "2012": 75,
    "2017": 86.84
  },
  "PP Chawla": {
    "2008": 157.89,
    "2009": 88.57,
    "2010": 106.9,
    "2011": 88.89,
    "2012": 121.84,
    "2013": 114.29,
    "2014": 172.22,
    "2015": 117.39,
    "2016": 108,
    "2017": 40
  },
  "AS Rajpoot": {
    "2013": 40,
    "2017": 66.67
  },
  "SC Ganguly": {
    "2008": 114.8,
    "2009": 92.65,
    "2010": 118.23,
    "2011": 87.72,
    "2012": 99.26
  },
  "RT Ponting": {
    "2008": 75,
    "2013": 70.27
  },
  "DJ Hussey": {
    "2008": 124.12,
    "2009": 175,
    "2010": 111.9,
    "2011": 103.23,
    "2012": 130.26,
    "2013": 113.53,
    "2014": 124.73
  },
  "Mohammad Hafeez": {
    "2008": 78.05
  },
  "R Dravid": {
    "2008": 125.34,
    "2009": 116.31,
    "2010": 129.29,
    "2011": 110.29,
    "2012": 112.41,
    "2013": 111.08
  },
  "W Jaffer": {
    "2008": 110.58,
    "2009": 88.24
  },
  "JH Kallis": {
    "2008": 109.34,
    "2009": 109.39,
    "2010": 117.21,
    "2011": 112.47,
    "2012": 107.35,
    "2013": 96.88,
    "2014": 118.9
  },
  "CL White": {
    "2008": 115.15,
    "2010": 150,
    "2011": 96.3,
    "2012": 150.63,
    "2013": 115.9
  },
  "MV Boucher": {
    "2008": 127.84,
    "2009": 132.74,
    "2010": 144.44,
    "2011": 120
  },
  "B Akhil": {
    "2008": 153.33,
    "2009": 121.43,
    "2011": 162.5
  },
  "AA Noffke": {
    "2008": 100
  },
  "SB Joshi": {
    "2008": 46.15
  },
  "ML Hayden": {
    "2008": 150,
    "2009": 145.92,
    "2010": 124.46
  },
  "MEK Hussey": {
    "2008": 169.7,
    "2010": 86.05,
    "2011": 119.42,
    "2012": 111.06,
    "2013": 129.96,
    "2014": 115.47,
    "2015": 111.59
  },
  "JDP Oram": {
    "2008": 150,
    "2009": 96.7,
    "2011": 0
  },
  "S Badrinath": {
    "2008": 148.84,
    "2009": 108.59,
    "2010": 118.67,
    "2011": 127.33,
    "2012": 108.89,
    "2013": 104.2
  },
  "K Goel": {
    "2008": 98.7,
    "2009": 93.23,
    "2010": 94.74
  },
  "JR Hopes": {
    "2008": 150.34,
    "2011": 125.64
  },
  "KC Sangakkara": {
    "2008": 163.27,
    "2009": 103.43,
    "2010": 140,
    "2011": 123.45,
    "2012": 109.89,
    "2013": 88.89
  },
  "SM Katich": {
    "2008": 143.28,
    "2009": 125
  },
  "T Kohli": {
    "2008": 71.43,
    "2009": 33.33
  },
  "M Kaif": {
    "2008": 104.14,
    "2010": 96.55,
    "2011": 128.13,
    "2012": 93.33
  },
  "DS Lehmann": {
    "2008": 105.88
  },
  "M Rawat": {
    "2008": 89.47,
    "2009": 88.89,
    "2013": 50
  },
  "D Salunkhe": {
    "2008": 143.48
  },
  "SK Warne": {
    "2008": 122.81,
    "2009": 93.91,
    "2010": 55.56,
    "2011": 52.63
  },
  "SK Trivedi": {
    "2008": 45.45,
    "2009": 56.25,
    "2010": 153.85,
    "2011": 0,
    "2012": 100,
    "2013": 50
  },
  "V Sehwag": {
    "2008": 188.84,
    "2009": 148.87,
    "2010": 164.81,
    "2011": 178.15,
    "2012": 161.76,
    "2013": 129.39,
    "2014": 145.37,
    "2015": 119.28
  },
  "L Ronchi": {
    "2008": 109.68,
    "2009": 0
  },
  "ST Jayasuriya": {
    "2008": 167.43,
    "2009": 116.93,
    "2010": 110
  },
  "DJ Thornely": {
    "2008": 75
  },
  "PR Shah": {
    "2008": 103.03,
    "2009": 106,
    "2011": 125
  },
  "AM Nayar": {
    "2008": 151.47,
    "2009": 128.67,
    "2010": 116,
    "2011": 93.85,
    "2012": 93.75,
    "2013": 91.67,
    "2014": 95.56
  },
  "SM Pollock": {
    "2008": 133.64
  },
  "S Chanderpaul": {
    "2008": 83.33
  },
  "LRPL Taylor": {
    "2008": 186.25,
    "2009": 136.59,
    "2010": 118.92,
    "2011": 121.48,
    "2012": 115.88,
    "2013": 84,
    "2014": 101.72
  },
  "AC Gilchrist": {
    "2008": 139.3,
    "2009": 154.21,
    "2010": 157.07,
    "2011": 132.07,
    "2012": 121.99,
    "2013": 128.95
  },
  "Y Venugopal Rao": {
    "2008": 139.13,
    "2009": 109.73,
    "2010": 80.95,
    "2011": 120.86,
    "2012": 105.6,
    "2014": 114.52
  },
  "VVS Laxman": {
    "2008": 118.32,
    "2009": 59.38,
    "2010": 108.47,
    "2011": 110
  },
  "A Symonds": {
    "2008": 156.31,
    "2009": 153.7,
    "2010": 126.55,
    "2011": 98.54
  },
  "SB Styris": {
    "2008": 92.56,
    "2009": 200,
    "2011": 500
  },
  "AS Yadav": {
    "2008": 128.95
  },
  "SB Bangar": {
    "2008": 97.92,
    "2009": 25
  },
  "WPUJC Vaas": {
    "2008": 131.25,
    "2009": 150,
    "2010": 90.91
  },
  "RP Singh": {
    "2008": 117.39,
    "2009": 50,
    "2010": 50,
    "2011": 66.67,
    "2012": 54.55
  },
  "LR Shukla": {
    "2008": 134.71,
    "2009": 98.81,
    "2010": 144,
    "2011": 155.56,
    "2012": 133.93,
    "2013": 25,
    "2014": 83.78
  },
  "DPMD Jayawardene": {
    "2008": 137.69,
    "2009": 133.54,
    "2010": 149.33,
    "2011": 116.8,
    "2012": 112.79,
    "2013": 106.43
  },
  "S Sohal": {
    "2008": 57.14,
    "2009": 127.78,
    "2011": 131.75
  },
  "B Lee": {
    "2008": 154.55,
    "2009": 84.85,
    "2010": 122.22,
    "2011": 62.5,
    "2012": 221.05,
    "2013": 190.91
  },
  "WA Mota": {
    "2008": 100,
    "2009": 63.83
  },
  "Kamran Akmal": {
    "2008": 168.42
  },
  "Shahid Afridi": {
    "2008": 180
  },
  "DJ Bravo": {
    "2008": 136.92,
    "2009": 109,
    "2010": 117.31,
    "2011": 220,
    "2012": 142.15,
    "2013": 115.24,
    "2014": 400,
    "2015": 132.65,
    "2016": 122.22
  },
  "MA Khote": {
    "2008": 114.29
  },
  "A Nehra": {
    "2008": 27.27,
    "2009": null,
    "2010": 127.78,
    "2012": 91.67,
    "2013": 14.29,
    "2015": 16.67,
    "2016": null
  },
  "GC Smith": {
    "2008": 122.5,
    "2009": 100,
    "2010": 115.79,
    "2011": 84
  },
  "Pankaj Singh": {
    "2008": 71.43,
    "2009": 100,
    "2010": 100
  },
  "RR Sarwan": {
    "2008": 98.65
  },
  "S Sreesanth": {
    "2008": 0,
    "2009": 29.41,
    "2010": 135,
    "2011": 12.5,
    "2013": 33.33
  },
  "VRV Singh": {
    "2008": 200
  },
  "R Vinay Kumar": {
    "2008": 119.05,
    "2009": 109.3,
    "2010": 84.38,
    "2011": 108.7,
    "2012": 111.48,
    "2013": 162.79,
    "2014": 66.67,
    "2015": 0,
    "2016": 118.18
  },
  "AB Agarkar": {
    "2008": 122.73,
    "2009": 117.86,
    "2010": 148.15,
    "2011": 175,
    "2013": 80
  },
  "M Kartik": {
    "2008": 115.38,
    "2009": 110.53,
    "2010": 104.76,
    "2011": 92.31,
    "2012": 130,
    "2013": 100
  },
  "Shoaib Malik": {
    "2008": 115.56
  },
  "MF Maharoof": {
    "2008": 160.26,
    "2009": 105,
    "2010": 140.91
  },
  "VY Mahesh": {
    "2008": 57.69
  },
  "TM Srivastava": {
    "2008": 88.89,
    "2009": null
  },
  "B Chipli": {
    "2008": 74.07,
    "2011": 122.49,
    "2012": 108.82,
    "2013": 94.12
  },
  "DW Steyn": {
    "2008": 50,
    "2009": 0,
    "2010": 81.25,
    "2011": 105.88,
    "2012": 95,
    "2013": 151.43,
    "2014": 88,
    "2015": 166.67,
    "2016": 100
  },
  "DB Das": {
    "2008": 110.75,
    "2012": 138.46,
    "2013": 102.74
  },
  "HH Gibbs": {
    "2008": 109.15,
    "2009": 112.77,
    "2010": 114.1,
    "2012": 93.1
  },
  "DNT Zoysa": {
    "2008": 137.5
  },
  "D Kalyankrishna": {
    "2008": 42.86
  },
  "SA Asnodkar": {
    "2008": 135.22,
    "2009": 106.52,
    "2010": 166.67,
    "2011": 112.5
  },
  "Sohail Tanvir": {
    "2008": 133.33
  },
  "Salman Butt": {
    "2008": 121.38
  },
  "BJ Hodge": {
    "2008": 75,
    "2009": 118.51,
    "2010": 111.24,
    "2011": 122.32,
    "2012": 142.44,
    "2013": 135.65,
    "2014": 142.25
  },
  "Umar Gul": {
    "2008": 216.67
  },
  "SP Fleming": {
    "2008": 121.74
  },
  "S Vidyut": {
    "2008": 134.26
  },
  "JA Morkel": {
    "2008": 149.69,
    "2009": 140.58,
    "2010": 153.08,
    "2011": 139.39,
    "2012": 159.7,
    "2013": 127.78,
    "2014": 112.5,
    "2015": 134.38,
    "2016": 200
  },
  "LPC Silva": {
    "2008": 160
  },
  "DB Ravi Teja": {
    "2008": 136.25,
    "2009": 94.2,
    "2011": 128.87,
    "2012": 133.33,
    "2013": 87.5
  },
  "Misbah-ul-Haq": {
    "2008": 146.25
  },
  "YV Takawale": {
    "2008": 111.11,
    "2009": 85.71,
    "2014": 114.29
  },
  "RR Raje": {
    "2008": 100,
    "2009": 150
  },
  "Mohammad Asif": {
    "2008": 60
  },
  "GD McGrath": {
    "2008": 100
  },
  "Joginder Sharma": {
    "2008": 160,
    "2009": 117.65,
    "2011": null
  },
  "MS Gony": {
    "2008": 166.67,
    "2009": 216.67,
    "2010": 40,
    "2011": 0,
    "2012": 57.14,
    "2013": 187.5
  },
  "M Muralitharan": {
    "2008": 0,
    "2009": 114.29,
    "2010": 100,
    "2011": 83.33,
    "2012": 75
  },
  "M Ntini": {
    "2008": 64.71
  },
  "DT Patil": {
    "2008": 108.33
  },
  "A Kumble": {
    "2008": 81.25,
    "2009": 88.89,
    "2010": 60
  },
  "S Anirudha": {
    "2008": 16.67,
    "2010": 176.47,
    "2011": 113.7,
    "2012": 316.67,
    "2013": 0,
    "2014": 75
  },
  "CK Kapugedera": {
    "2008": 76.19
  },
  "A Chopra": {
    "2008": 82.35,
    "2009": 61.11
  },
  "T Taibu": {
    "2008": 124
  },
  "J Arunkumar": {
    "2008": 104.55
  },
  "PP Ojha": {
    "2008": 66.67,
    "2009": 16.67,
    "2010": 42.86,
    "2012": 33.33,
    "2013": 66.67,
    "2014": 57.14
  },
  "SP Goswami": {
    "2008": 97.62,
    "2009": 89.83,
    "2010": 88.89,
    "2011": 103.57,
    "2012": 104.55
  },
  "SR Tendulkar": {
    "2008": 106.82,
    "2009": 122.15,
    "2010": 133.77,
    "2011": 113.55,
    "2012": 114.89,
    "2013": 124.78
  },
  "U Kaul": {
    "2008": null
  },
  "TM Dilshan": {
    "2008": 135.06,
    "2009": 123.67,
    "2010": 84.62,
    "2011": 125.56,
    "2012": 110.47,
    "2013": 83.52
  },
  "AD Mascarenhas": {
    "2008": 128.57,
    "2009": 102.63,
    "2010": 133.33,
    "2012": 93.33,
    "2013": 125
  },
  "Niraj Patel": {
    "2008": 128.75,
    "2009": 48.65
  },
  "LA Pomersbach": {
    "2008": 155.1,
    "2009": 91.11,
    "2011": 134.21,
    "2013": 100
  },
  "Younis Khan": {
    "2008": 50
  },
  "PM Sarvesh Kumar": {
    "2008": 100
  },
  "DP Vijaykumar": {
    "2008": null
  },
  "Shoaib Akhtar": {
    "2008": 28.57
  },
  "Abdur Razzak": {
    "2008": 0
  },
  "H Das": {
    "2008": 50
  },
  "SD Chitnis": {
    "2008": 225,
    "2009": 85.71,
    "2011": 112.5,
    "2012": 108.2
  },
  "CRD Fernando": {
    "2008": null,
    "2010": 200
  },
  "VS Yeligati": {
    "2008": 200
  },
  "L Balaji": {
    "2008": 0,
    "2009": 44.44,
    "2010": 94.74,
    "2011": 400,
    "2013": 100,
    "2014": 50
  },
  "A Mukund": {
    "2008": null,
    "2013": 95
  },
  "RR Powar": {
    "2008": 140,
    "2009": 109.52,
    "2010": 71.43,
    "2011": 91.67
  },
  "JP Duminy": {
    "2009": 114.81,
    "2010": 120.77,
    "2011": 119.19,
    "2012": 129.1,
    "2014": 136.21,
    "2015": 131.85,
    "2016": 124.03
  },
  "A Flintoff": {
    "2009": 119.23
  },
  "T Thushara": {
    "2009": 33.33,
    "2010": 100
  },
  "JD Ryder": {
    "2009": 119.15,
    "2011": 149.74,
    "2012": 121.9
  },
  "KP Pietersen": {
    "2009": 112.05,
    "2010": 151.28,
    "2012": 148.06,
    "2014": 126.72,
    "2016": 121.67
  },
  "T Henderson": {
    "2009": 78.57
  },
  "Kamran Khan": {
    "2009": 75
  },
  "RS Bopara": {
    "2009": 115.97,
    "2010": 115.89,
    "2015": 121.85
  },
  "R Bishnoi": {
    "2009": 118.75
  },
  "FH Edwards": {
    "2009": 100
  },
  "PC Valthaty": {
    "2009": 54.55,
    "2011": 139.04,
    "2012": 60,
    "2013": 37.5
  },
  "RJ Quiney": {
    "2009": 101.98
  },
  "AS Raut": {
    "2009": 127.87,
    "2010": 119.15,
    "2011": 105.26
  },
  "Yashpal Singh": {
    "2009": 73.44
  },
  "M Manhas": {
    "2009": 122.95,
    "2010": 106.08,
    "2011": 93.44,
    "2012": 126.32,
    "2013": 81.25,
    "2014": 159.09
  },
  "AA Bilakhia": {
    "2009": 84.81,
    "2010": 66.67
  },
  "AN Ghosh": {
    "2009": 100
  },
  "BAW Mendis": {
    "2009": null,
    "2010": null,
    "2013": 66.67
  },
  "DL Vettori": {
    "2009": 113.33,
    "2010": 126.92,
    "2011": 85.19,
    "2012": 124
  },
  "MN van Wyk": {
    "2009": 128.46
  },
  "RE van der Merwe": {
    "2009": 125.77,
    "2010": 100,
    "2011": 93.33,
    "2013": 91.67
  },
  "TL Suman": {
    "2009": 125.4,
    "2010": 120.87,
    "2011": 130,
    "2012": 83.33,
    "2013": 91.23
  },
  "Shoaib Ahmed": {
    "2009": 20
  },
  "GR Napier": {
    "2009": 100
  },
  "KP Appanna": {
    "2009": null,
    "2010": 100
  },
  "LA Carseldine": {
    "2009": 124.62
  },
  "SM Harwood": {
    "2009": 75
  },
  "M Vijay": {
    "2009": 89.55,
    "2010": 157.39,
    "2011": 128.4,
    "2012": 127.27,
    "2013": 109.47,
    "2014": 108.38,
    "2015": 110.09,
    "2016": 124.79
  },
  "SB Jakati": {
    "2009": 133.33,
    "2012": 63.64,
    "2016": 100
  },
  "RJ Harris": {
    "2009": 123.53,
    "2010": 118.42,
    "2011": 83.78,
    "2012": 180,
    "2013": 50
  },
  "D du Preez": {
    "2009": 83.33
  },
  "M Morkel": {
    "2009": 114.29,
    "2010": 60,
    "2011": 173.91,
    "2012": 75,
    "2013": 203.57,
    "2014": 200,
    "2015": 200,
    "2016": null
  },
  "J Botha": {
    "2009": 123.68,
    "2011": 116.75,
    "2012": 109.43,
    "2013": 84.31,
    "2015": 221.43
  },
  "C Nanda": {
    "2009": null
  },
  "Mashrafe Mortaza": {
    "2009": 200
  },
  "A Singh": {
    "2009": 50,
    "2011": 33.33,
    "2012": 0
  },
  "GJ Bailey": {
    "2009": 118.42,
    "2010": 69.23,
    "2014": 137.43,
    "2015": 137.04,
    "2016": 87.5
  },
  "AB McDonald": {
    "2009": 100,
    "2010": 125,
    "2011": 133.33,
    "2012": 138.24,
    "2013": 0
  },
  "Y Nagar": {
    "2009": 105.26,
    "2010": 16.67,
    "2011": 112.12,
    "2012": 115.91
  },
  "SS Shaikh": {
    "2009": 100
  },
  "R Ashwin": {
    "2009": 57.14,
    "2010": 76.92,
    "2011": 40,
    "2012": 128.57,
    "2013": 72.92,
    "2014": 102.27,
    "2015": 167.74,
    "2016": 110.81
  },
  "Mohammad Ashraful": {
    "2009": 22.22
  },
  "CA Pujara": {
    "2010": 107.02,
    "2011": 113.33,
    "2012": 80.95,
    "2013": 93.88,
    "2014": 102.46
  },
  "OA Shah": {
    "2010": 122.34,
    "2011": 185.71,
    "2012": 133.86,
    "2013": 113.64
  },
  "Anirudh Singh": {
    "2010": 96.92
  },
  "Jaskaran Singh": {
    "2010": 80
  },
  "R Sathish": {
    "2010": 116.67,
    "2011": 75.76,
    "2013": 145.33,
    "2016": 104.35
  },
  "R McLaren": {
    "2010": 97.06,
    "2011": 93.75,
    "2013": 60
  },
  "AA Jhunjhunwala": {
    "2010": 110.91,
    "2011": 62.5,
    "2012": 96
  },
  "P Dogra": {
    "2010": 101.9,
    "2012": 65.22,
    "2013": 71.43
  },
  "A Uniyal": {
    "2010": 66.67
  },
  "MS Bisla": {
    "2010": 123.86,
    "2011": 81.82,
    "2012": 133.96,
    "2013": 108.97,
    "2014": 37.5,
    "2015": 127.59
  },
  "YA Abdulla": {
    "2010": null
  },
  "JM Kemp": {
    "2010": 113.04
  },
  "S Tyagi": {
    "2010": 100
  },
  "RS Gavaskar": {
    "2010": 28.57
  },
  "SE Bond": {
    "2010": 100
  },
  "S Ladda": {
    "2010": 0
  },
  "DP Nannes": {
    "2010": 33.33
  },
  "MJ Lumb": {
    "2010": 147.87,
    "2011": 0
  },
  "DR Martyn": {
    "2010": 82.61
  },
  "S Narwal": {
    "2010": 127.27,
    "2013": 164.29
  },
  "AB Barath": {
    "2010": 102.44
  },
  "FY Fazal": {
    "2010": 107.89,
    "2011": 105.56
  },
  "AC Voges": {
    "2010": 127.46
  },
  "MD Mishra": {
    "2010": 117.73,
    "2011": 113.56,
    "2012": 133.33
  },
  "J Theron": {
    "2010": 40,
    "2012": 140,
    "2015": null
  },
  "SJ Srivastava": {
    "2010": 100,
    "2011": 200
  },
  "R Sharma": {
    "2010": 116,
    "2011": 120,
    "2012": 20,
    "2013": 68.75
  },
  "SW Tait": {
    "2010": 100,
    "2011": 111.11,
    "2013": 50
  },
  "KB Arun Karthik": {
    "2010": 75,
    "2011": 100,
    "2013": 110.81
  },
  "KAJ Roach": {
    "2010": 125
  },
  "PD Collingwood": {
    "2010": 130.97
  },
  "CK Langeveldt": {
    "2010": null,
    "2011": 114.29
  },
  "VS Malik": {
    "2010": 150,
    "2014": 100
  },
  "A Mithun": {
    "2010": 166.67,
    "2011": 142.11,
    "2013": 200
  },
  "AP Dole": {
    "2010": 161.9
  },
  "AN Ahmed": {
    "2010": 57.14,
    "2011": 150,
    "2014": null,
    "2015": 250
  },
  "RS Sodhi": {
    "2010": 400
  },
  "DE Bollinger": {
    "2010": 120,
    "2011": null,
    "2012": 75
  },
  "S Sriram": {
    "2010": 96.43,
    "2011": 66.67
  },
  "B Sumanth": {
    "2010": 97.22
  },
  "C Madan": {
    "2010": 88.24
  },
  "AG Paunikar": {
    "2010": null,
    "2011": 92.45
  },
  "MR Marsh": {
    "2010": 93.33,
    "2011": 104.17,
    "2013": 133.33,
    "2016": 70
  },
  "Harmeet Singh": {
    "2010": null,
    "2012": 250,
    "2013": 100
  },
  "RV Gomez": {
    "2011": 93.88,
    "2013": null
  },
  "AUK Pathan": {
    "2011": 220,
    "2012": 100
  },
  "UBT Chand": {
    "2011": 18.18,
    "2012": 105.88,
    "2013": 101.28,
    "2014": 25,
    "2015": 124.39,
    "2016": 0
  },
  "DJ Jacobs": {
    "2011": 105.75,
    "2012": 0
  },
  "Sunny Singh": {
    "2011": 143.33
  },
  "NJ Rimmington": {
    "2011": null
  },
  "AL Menaria": {
    "2011": 119.21,
    "2012": 110.55,
    "2013": 100
  },
  "WD Parnell": {
    "2011": 97.37,
    "2012": 73.08,
    "2013": 83.33,
    "2014": 200
  },
  "JJ van der Wath": {
    "2011": 120
  },
  "R Ninan": {
    "2011": 75
  },
  "MS Wade": {
    "2011": 68.75
  },
  "TD Paine": {
    "2011": 40
  },
  "SB Wagh": {
    "2011": 100
  },
  "AC Thomas": {
    "2011": 33.33,
    "2012": 135.71
  },
  "JEC Franklin": {
    "2011": 138.96,
    "2012": 99.55
  },
  "DH Yagnik": {
    "2011": 80,
    "2012": 208.33,
    "2013": 135.87,
    "2014": 80
  },
  "S Randiv": {
    "2011": 66.67
  },
  "BJ Haddin": {
    "2011": 180
  },
  "NLTC Perera": {
    "2011": 88.46,
    "2012": 50,
    "2013": 145.06,
    "2015": 85.71,
    "2016": 164.84
  },
  "NL McCullum": {
    "2011": 123.81
  },
  "JE Taylor": {
    "2011": 100
  },
  "J Syed Mohammad": {
    "2011": 136.36,
    "2012": null,
    "2013": 83.33
  },
  "RN ten Doeschate": {
    "2011": 148.61,
    "2012": 105,
    "2013": 137.1,
    "2014": 162.5,
    "2015": 138.64
  },
  "TR Birt": {
    "2011": 133.93
  },
  "AG Murtaza": {
    "2011": 50,
    "2012": 75,
    "2013": 166.67
  },
  "Harpreet Singh": {
    "2011": 73.68,
    "2012": 120
  },
  "M Klinger": {
    "2011": 98.65
  },
  "AC Blizzard": {
    "2011": 139.53,
    "2012": 0
  },
  "I Malhotra": {
    "2011": 233.33
  },
  "L Ablish": {
    "2011": 0
  },
  "CA Ingram": {
    "2011": 87.5
  },
  "P Parameswaran": {
    "2011": null,
    "2012": 0
  },
  "CJ Ferguson": {
    "2011": 90.57,
    "2012": 80.65
  },
  "AA Chavan": {
    "2011": 50,
    "2012": 157.14
  },
  "ND Doshi": {
    "2011": 0
  },
  "Y Gnaneswara Rao": {
    "2011": 118.75
  },
  "S Rana": {
    "2011": 128.57,
    "2014": 115.87
  },
  "BA Bhatt": {
    "2011": 0,
    "2012": 600
  },
  "RE Levi": {
    "2012": 115.28
  },
  "KK Cooper": {
    "2012": 211.11,
    "2013": 185.71,
    "2014": 156
  },
  "HV Patel": {
    "2012": 107.14,
    "2014": 216.67,
    "2015": 172.73
  },
  "DAJ Bracewell": {
    "2012": 150
  },
  "DJ Harris": {
    "2012": 111
  },
  "GB Hogg": {
    "2012": 100,
    "2015": 140
  },
  "RR Bhatkal": {
    "2012": 0
  },
  "CJ McKay": {
    "2012": 57.14
  },
  "N Saini": {
    "2012": 100.72
  },
  "Azhar Mahmood": {
    "2012": 131.91,
    "2013": 128.1,
    "2015": 100
  },
  "RJ Peterson": {
    "2012": 110.34
  },
  "KMDN Kulasekara": {
    "2012": 250
  },
  "A Ashish Reddy": {
    "2012": 125,
    "2013": 142.05,
    "2015": 162.22,
    "2016": 167.86
  },
  "V Pratap Singh": {
    "2012": null
  },
  "BB Samantray": {
    "2012": 200,
    "2013": 111.82
  },
  "MJ Clarke": {
    "2012": 105.38
  },
  "Gurkeerat Singh": {
    "2012": 168.63,
    "2013": 114.89,
    "2015": 92.11,
    "2016": 132.94
  },
  "AP Majumdar": {
    "2012": 116
  },
  "PA Reddy": {
    "2012": 125.86,
    "2013": 91
  },
  "K Upadhyay": {
    "2012": 157.14,
    "2013": null
  },
  "P Awana": {
    "2012": 100,
    "2013": 12.5
  },
  "AD Russell": {
    "2012": 188,
    "2013": 84.62,
    "2014": 28.57,
    "2015": 194.05,
    "2016": 166.37
  },
  "A Chandila": {
    "2012": null,
    "2013": 80
  },
  "Sunny Gupta": {
    "2012": null
  },
  "MC Juneja": {
    "2013": 98.43
  },
  "GH Vihari": {
    "2013": 87.32,
    "2015": 118.18
  },
  "MDKJ Perera": {
    "2013": 116.67
  },
  "R Shukla": {
    "2013": 100,
    "2014": 90
  },
  "B Laughlin": {
    "2013": 50
  },
  "BMAJ Mendis": {
    "2013": 88.46
  },
  "R Rampaul": {
    "2013": 108.57,
    "2014": 108.33
  },
  "SMSM Senanayake": {
    "2013": 66.67
  },
  "BJ Rohrer": {
    "2013": 137.86
  },
  "KL Rahul": {
    "2013": 133.33,
    "2014": 101.84,
    "2015": 115.45,
    "2016": 147.04
  },
  "Q de Kock": {
    "2013": 42.86,
    "2014": 118.6,
    "2015": 160.53,
    "2016": 136.92
  },
  "R Dhawan": {
    "2013": 105,
    "2014": 110.81,
    "2015": 112.5,
    "2016": 280
  },
  "LJ Wright": {
    "2013": 182.76
  },
  "IC Pandey": {
    "2013": 0
  },
  "CM Gautam": {
    "2013": 133.33,
    "2014": 111.01,
    "2015": 100
  },
  "X Thalaivan Sargunam": {
    "2013": 62.5
  },
  "DJG Sammy": {
    "2013": 132.82,
    "2014": 120,
    "2015": 76.47
  },
  "KW Richardson": {
    "2013": 97.14,
    "2014": 100,
    "2016": null
  },
  "UA Birla": {
    "2013": 53.85
  },
  "Parvez Rasool": {
    "2013": 62.5,
    "2015": 200,
    "2016": 125
  },
  "PV Tambe": {
    "2013": 60,
    "2014": 62.5,
    "2015": 75,
    "2016": 41.18
  },
  "NJ Maddinson": {
    "2014": 123.08,
    "2015": 66.67
  },
  "JDS Neesham": {
    "2014": 93.33
  },
  "MA Starc": {
    "2014": 102.41,
    "2015": 84.62
  },
  "BR Dunk": {
    "2014": 117.65
  },
  "RR Rossouw": {
    "2014": 97.5,
    "2015": 155.56
  },
  "Shivam Sharma": {
    "2014": 250
  },
  "VH Zol": {
    "2014": 116
  },
  "BE Hendricks": {
    "2014": null,
    "2015": 100
  },
  "S Gopal": {
    "2014": 122.22,
    "2015": null,
    "2016": 13.33
  },
  "M de Lange": {
    "2014": 100
  },
  "JO Holder": {
    "2014": 145.45,
    "2016": 122.22
  },
  "Karanveer Singh": {
    "2014": null,
    "2015": 73.33
  },
  "SA Abbott": {
    "2015": 125
  },
  "J Suchith": {
    "2015": 154.84
  },
  "RG More": {
    "2015": 200
  },
  "D Wiese": {
    "2015": 145.24,
    "2016": 166.67
  },
  "SN Khan": {
    "2015": 160.87,
    "2016": 220
  },
  "DJ Muthuswami": {
    "2015": 50
  },
  "C Munro": {
    "2016": 103.45
  },
  "P Sahu": {
    "2016": 158.33
  },
  "KJ Abbott": {
    "2016": 185.71
  },
  "M Ashwin": {
    "2016": null
  },
  "NS Naik": {
    "2016": 76.67
  },
  "PSP Handscomb": {
    "2016": 54.55
  },
  "J Yadav": {
    "2016": 66.67
  },
  "UT Khawaja": {
    "2016": 129.59
  },
  "F Behardien": {
    "2016": 116.67
  },
  "BB Sran": {
    "2016": 200
  },
  "S Kaushik": {
    "2016": null
  },
  "ER Dwivedi": {
    "2016": 184.62
  }
}